n,with_openmp,ex_time
1000,0,8e-06
11000,0,7e-05
21000,0,0.000134
31000,0,0.000209
41000,0,0.000259
51000,0,0.000322
61000,0,0.000384
71000,0,0.000463
81000,0,0.00051
91000,0,0.000572
1000,1,0.00023534
11000,1,0.00022654
21000,1,0.000255478
31000,1,0.000258634
41000,1,0.00027532
51000,1,0.000284303
61000,1,0.000331183
71000,1,0.000326246
81000,1,0.000341943
91000,1,0.000379146
