nprocs,ex_time
1,0.537154
2,0.281999
3,0.193013
4,0.141889
5,0.124956
6,0.106138
7,0.0934603
8,0.0824355
9,0.124375
10,0.122488
11,0.112155
12,0.104025
13,0.0957626
14,0.0904817
15,0.0850994
16,0.0795379
